Tidy Tuesday Exercise – Asmith Joseph Data Analysis Portfolio
…
# Display the first few rows of the data
head(care_state)

# A tibble: 6 × 8
  state condition   measure_id measure_name score footnote start_date end_date  
  <chr> <chr>       <chr>      <chr>        <dbl> <chr>    <date>     <date>    
1 AK    Healthcare… HCP_COVID… Percentage …   7.3 <NA>     2024-01-01 2024-03-31
2 AK    Healthcare… IMM_3      Healthcare …  80   <NA>     2023-10-01 2024-03-31
3 AK    Emergency … OP_18b     Average (me… 140   25, 26   2023-04-01 2024-03-31
4 AK    Emergency … OP_18b_HI… Average tim… 157   25, 26   2023-04-01 2024-03-31
5 AK    Emergency … OP_18b_LO… Average tim… 136   25, 26   2023-04-01 2024-03-31
6 AK    Emergency … OP_18b_ME… Average tim… 136   25, 26   2023-04-01 2024-03-31

# A tibble: 1,232 × 8
   state condition  measure_id measure_name score footnote start_date end_date  
   <chr> <chr>      <chr>      <chr>        <dbl> <chr>    <date>     <date>    
 1 AK    Healthcar… HCP_COVID… Percentage …   7.3 <NA>     2024-01-01 2024-03-31
 2 AK    Healthcar… IMM_3      Healthcare …  80   <NA>     2023-10-01 2024-03-31
 3 AK    Emergency… OP_18b     Average (me… 140   25, 26   2023-04-01 2024-03-31
 4 AK    Emergency… OP_18b_HI… Average tim… 157   25, 26   2023-04-01 2024-03-31
 5 AK    Emergency… OP_18b_LO… Average tim… 136   25, 26   2023-04-01 2024-03-31
 6 AK    Emergency… OP_18b_ME… Average tim… 136   25, 26   2023-04-01 2024-03-31
 7 AK    Emergency… OP_18b_VE… Average tim…  NA   25, 26   2023-04-01 2024-03-31
 8 AK    Emergency… OP_18c     Average (me… 196   25       2023-04-01 2024-03-31
 9 AK    Emergency… OP_18c_HI… Average tim… 230   25       2023-04-01 2024-03-31
10 AK    Emergency… OP_18c_LO… Average tim… 182   25       2023-04-01 2024-03-31
# ℹ 1,222 more rows
…
Frequency Table for Categorical Variables

if("state" %in% colnames(care_state)){
  state_freq <- care_state %>%
    count(state) %>%
    arrange(desc(n))
  
  # Print the frequency table directly so it appears in the output
  print(state_freq)
}

# A tibble: 56 × 2
   state     n
   <chr> <int>
 1 AK       22
 2 AL       22
 3 AR       22
 4 AS       22
 5 AZ       22
 6 CA       22
 7 CO       22
 8 CT       22
 9 DC       22
10 DE       22
# ℹ 46 more rows
…
